EESchema Schematic File Version 4
EELAYER 30 0
EELAYER END
$Descr A4 11693 8268
encoding utf-8
Sheet 1 1
Title ""
Date ""
Rev ""
Comp ""
Comment1 ""
Comment2 ""
Comment3 ""
Comment4 ""
$EndDescr
$Comp
L Connector_Generic:Conn_02x13_Odd_Even J2
U 1 1 6183FE41
P 3500 3000
F 0 "J2" H 3550 3817 50  0000 C CNN
F 1 "Pi" H 3550 3726 50  0000 C CNN
F 2 "Connector_PinHeader_2.54mm:PinHeader_2x13_P2.54mm_Vertical" H 3500 3000 50  0001 C CNN
F 3 "~" H 3500 3000 50  0001 C CNN
	1    3500 3000
	1    0    0    -1  
$EndComp
$Comp
L power:+5V #PWR0101
U 1 1 61841530
P 4000 2300
F 0 "#PWR0101" H 4000 2150 50  0001 C CNN
F 1 "+5V" H 4015 2473 50  0000 C CNN
F 2 "" H 4000 2300 50  0001 C CNN
F 3 "" H 4000 2300 50  0001 C CNN
	1    4000 2300
	1    0    0    -1  
$EndComp
Wire Wire Line
	3800 2500 4000 2500
Wire Wire Line
	4000 2500 4000 2400
Wire Wire Line
	3800 2400 4000 2400
Connection ~ 4000 2400
Wire Wire Line
	4000 2400 4000 2300
$Comp
L power:GND #PWR0102
U 1 1 61841F01
P 4000 2600
F 0 "#PWR0102" H 4000 2350 50  0001 C CNN
F 1 "GND" V 4005 2472 50  0000 R CNN
F 2 "" H 4000 2600 50  0001 C CNN
F 3 "" H 4000 2600 50  0001 C CNN
	1    4000 2600
	0    -1   -1   0   
$EndComp
Wire Wire Line
	4000 2600 3800 2600
$Comp
L Connector:Conn_01x04_Female J3
U 1 1 61843CF2
P 4500 1450
F 0 "J3" H 4528 1426 50  0000 L CNN
F 1 "StepDown5V" H 4528 1335 50  0000 L CNN
F 2 "Connector_PinHeader_2.54mm:PinHeader_1x04_P2.54mm_Vertical" H 4500 1450 50  0001 C CNN
F 3 "~" H 4500 1450 50  0001 C CNN
	1    4500 1450
	1    0    0    -1  
$EndComp
$Comp
L power:+5V #PWR0103
U 1 1 61845761
P 4300 1350
F 0 "#PWR0103" H 4300 1200 50  0001 C CNN
F 1 "+5V" V 4315 1478 50  0000 L CNN
F 2 "" H 4300 1350 50  0001 C CNN
F 3 "" H 4300 1350 50  0001 C CNN
	1    4300 1350
	0    -1   -1   0   
$EndComp
$Comp
L Connector:Conn_01x04_Female J5
U 1 1 61849006
P 7050 1300
F 0 "J5" H 6942 1585 50  0000 C CNN
F 1 "StepDownDoorA" H 6942 1494 50  0000 C CNN
F 2 "Connector_PinHeader_2.54mm:PinHeader_1x04_P2.54mm_Vertical" H 7050 1300 50  0001 C CNN
F 3 "~" H 7050 1300 50  0001 C CNN
	1    7050 1300
	-1   0    0    -1  
$EndComp
$Comp
L power:VCC #PWR0104
U 1 1 61849012
P 7250 1400
F 0 "#PWR0104" H 7250 1250 50  0001 C CNN
F 1 "VCC" V 7265 1527 50  0000 L CNN
F 2 "" H 7250 1400 50  0001 C CNN
F 3 "" H 7250 1400 50  0001 C CNN
	1    7250 1400
	0    1    -1   0   
$EndComp
$Comp
L power:GND #PWR0105
U 1 1 61849018
P 7250 1300
F 0 "#PWR0105" H 7250 1050 50  0001 C CNN
F 1 "GND" V 7255 1172 50  0000 R CNN
F 2 "" H 7250 1300 50  0001 C CNN
F 3 "" H 7250 1300 50  0001 C CNN
	1    7250 1300
	0    -1   1    0   
$EndComp
$Comp
L Connector:Conn_01x04_Female J6
U 1 1 6184D16C
P 7050 2300
F 0 "J6" H 6942 2585 50  0000 C CNN
F 1 "StepDownDoorB" H 6942 2494 50  0000 C CNN
F 2 "Connector_PinHeader_2.54mm:PinHeader_1x04_P2.54mm_Vertical" H 7050 2300 50  0001 C CNN
F 3 "~" H 7050 2300 50  0001 C CNN
	1    7050 2300
	-1   0    0    -1  
$EndComp
$Comp
L power:VCC #PWR0106
U 1 1 6184D172
P 7250 2400
F 0 "#PWR0106" H 7250 2250 50  0001 C CNN
F 1 "VCC" V 7265 2527 50  0000 L CNN
F 2 "" H 7250 2400 50  0001 C CNN
F 3 "" H 7250 2400 50  0001 C CNN
	1    7250 2400
	0    1    -1   0   
$EndComp
$Comp
L power:GND #PWR0107
U 1 1 6184D178
P 7250 2300
F 0 "#PWR0107" H 7250 2050 50  0001 C CNN
F 1 "GND" V 7255 2172 50  0000 R CNN
F 2 "" H 7250 2300 50  0001 C CNN
F 3 "" H 7250 2300 50  0001 C CNN
	1    7250 2300
	0    -1   1    0   
$EndComp
$Comp
L Connector_Generic:Conn_01x02 J1
U 1 1 6185703E
P 2550 1600
F 0 "J1" H 2468 1275 50  0000 C CNN
F 1 "PowerIn" H 2468 1366 50  0000 C CNN
F 2 "Connector_PinHeader_2.54mm:PinHeader_1x02_P2.54mm_Vertical" H 2550 1600 50  0001 C CNN
F 3 "~" H 2550 1600 50  0001 C CNN
	1    2550 1600
	-1   0    0    1   
$EndComp
$Comp
L power:GND #PWR0108
U 1 1 61847B4B
P 4300 1450
F 0 "#PWR0108" H 4300 1200 50  0001 C CNN
F 1 "GND" V 4305 1322 50  0000 R CNN
F 2 "" H 4300 1450 50  0001 C CNN
F 3 "" H 4300 1450 50  0001 C CNN
	1    4300 1450
	0    1    1    0   
$EndComp
$Comp
L power:VCC #PWR0109
U 1 1 61846153
P 4300 1550
F 0 "#PWR0109" H 4300 1400 50  0001 C CNN
F 1 "VCC" V 4315 1677 50  0000 L CNN
F 2 "" H 4300 1550 50  0001 C CNN
F 3 "" H 4300 1550 50  0001 C CNN
	1    4300 1550
	0    -1   -1   0   
$EndComp
$Comp
L power:GND #PWR0110
U 1 1 6185963A
P 2750 1600
F 0 "#PWR0110" H 2750 1350 50  0001 C CNN
F 1 "GND" V 2755 1472 50  0000 R CNN
F 2 "" H 2750 1600 50  0001 C CNN
F 3 "" H 2750 1600 50  0001 C CNN
	1    2750 1600
	0    -1   -1   0   
$EndComp
$Comp
L power:VCC #PWR0111
U 1 1 61859640
P 2750 1500
F 0 "#PWR0111" H 2750 1350 50  0001 C CNN
F 1 "VCC" V 2765 1627 50  0000 L CNN
F 2 "" H 2750 1500 50  0001 C CNN
F 3 "" H 2750 1500 50  0001 C CNN
	1    2750 1500
	0    1    1    0   
$EndComp
$Comp
L Connector:Conn_01x08_Female J4
U 1 1 6185C69A
P 6750 4200
F 0 "J4" H 6778 4176 50  0000 L CNN
F 1 "PanelA" H 6778 4085 50  0000 L CNN
F 2 "Connector_PinHeader_2.54mm:PinHeader_1x08_P2.54mm_Vertical" H 6750 4200 50  0001 C CNN
F 3 "~" H 6750 4200 50  0001 C CNN
	1    6750 4200
	1    0    0    -1  
$EndComp
$Comp
L power:GND #PWR0112
U 1 1 618605F5
P 6250 4000
F 0 "#PWR0112" H 6250 3750 50  0001 C CNN
F 1 "GND" V 6255 3872 50  0000 R CNN
F 2 "" H 6250 4000 50  0001 C CNN
F 3 "" H 6250 4000 50  0001 C CNN
	1    6250 4000
	0    1    1    0   
$EndComp
Wire Wire Line
	6250 4000 6550 4000
Text Label 6450 4100 2    50   ~ 0
MOSI
Text Label 6450 4200 2    50   ~ 0
MISO
Wire Wire Line
	6450 4100 6550 4100
Wire Wire Line
	6550 4200 6450 4200
Text Label 6450 4300 2    50   ~ 0
SCK
Wire Wire Line
	6450 4300 6550 4300
Text Label 6450 4400 2    50   ~ 0
SS_A
Wire Wire Line
	6450 4400 6550 4400
Text Label 6450 4500 2    50   ~ 0
LED_A
Wire Wire Line
	6450 4500 6550 4500
Text Label 6450 4600 2    50   ~ 0
BUTTON_A
Wire Wire Line
	6450 4600 6550 4600
$Comp
L Connector:Conn_01x08_Female J7
U 1 1 6186B908
P 8150 4200
F 0 "J7" H 8178 4176 50  0000 L CNN
F 1 "PanelB" H 8178 4085 50  0000 L CNN
F 2 "Connector_PinHeader_2.54mm:PinHeader_1x08_P2.54mm_Vertical" H 8150 4200 50  0001 C CNN
F 3 "~" H 8150 4200 50  0001 C CNN
	1    8150 4200
	1    0    0    -1  
$EndComp
$Comp
L power:+3.3V #PWR0113
U 1 1 6186B90E
P 7850 3900
F 0 "#PWR0113" H 7850 3750 50  0001 C CNN
F 1 "+3.3V" H 7865 4073 50  0000 C CNN
F 2 "" H 7850 3900 50  0001 C CNN
F 3 "" H 7850 3900 50  0001 C CNN
	1    7850 3900
	1    0    0    -1  
$EndComp
Wire Wire Line
	7850 3900 7950 3900
$Comp
L power:GND #PWR0114
U 1 1 6186B915
P 7650 4000
F 0 "#PWR0114" H 7650 3750 50  0001 C CNN
F 1 "GND" V 7655 3872 50  0000 R CNN
F 2 "" H 7650 4000 50  0001 C CNN
F 3 "" H 7650 4000 50  0001 C CNN
	1    7650 4000
	0    1    1    0   
$EndComp
Wire Wire Line
	7650 4000 7950 4000
Text Label 7850 4100 2    50   ~ 0
MOSI
Text Label 7850 4200 2    50   ~ 0
MISO
Wire Wire Line
	7850 4100 7950 4100
Wire Wire Line
	7950 4200 7850 4200
Text Label 7850 4300 2    50   ~ 0
SCK
Wire Wire Line
	7850 4300 7950 4300
Text Label 7850 4400 2    50   ~ 0
SS_B
Wire Wire Line
	7850 4400 7950 4400
Text Label 7850 4500 2    50   ~ 0
LED_B
Wire Wire Line
	7850 4500 7950 4500
Text Label 7850 4600 2    50   ~ 0
BUTTON_B
Wire Wire Line
	7850 4600 7950 4600
Wire Wire Line
	6450 3900 6550 3900
$Comp
L power:+3.3V #PWR0115
U 1 1 6185FE56
P 6450 3900
F 0 "#PWR0115" H 6450 3750 50  0001 C CNN
F 1 "+3.3V" H 6465 4073 50  0000 C CNN
F 2 "" H 6450 3900 50  0001 C CNN
F 3 "" H 6450 3900 50  0001 C CNN
	1    6450 3900
	1    0    0    -1  
$EndComp
$Comp
L power:+3.3V #PWR0116
U 1 1 6187C833
P 3100 2350
F 0 "#PWR0116" H 3100 2200 50  0001 C CNN
F 1 "+3.3V" H 3115 2523 50  0000 C CNN
F 2 "" H 3100 2350 50  0001 C CNN
F 3 "" H 3100 2350 50  0001 C CNN
	1    3100 2350
	1    0    0    -1  
$EndComp
Wire Wire Line
	3300 2400 3100 2400
Wire Wire Line
	3100 2400 3100 2350
$Comp
L Connector_Generic:Conn_01x02 J8
U 1 1 6187EF8D
P 8950 1300
F 0 "J8" H 9030 1292 50  0000 L CNN
F 1 "DoorA" H 9030 1201 50  0000 L CNN
F 2 "Connector_PinHeader_2.54mm:PinHeader_1x02_P2.54mm_Vertical" H 8950 1300 50  0001 C CNN
F 3 "~" H 8950 1300 50  0001 C CNN
	1    8950 1300
	1    0    0    -1  
$EndComp
Wire Wire Line
	8750 1300 8750 1200
Wire Wire Line
	8750 1200 8300 1200
Wire Wire Line
	8300 1500 8750 1500
Wire Wire Line
	8750 1500 8750 1400
$Comp
L power:GND #PWR0117
U 1 1 618822F6
P 8300 1550
F 0 "#PWR0117" H 8300 1300 50  0001 C CNN
F 1 "GND" H 8305 1377 50  0000 C CNN
F 2 "" H 8300 1550 50  0001 C CNN
F 3 "" H 8300 1550 50  0001 C CNN
	1    8300 1550
	1    0    0    -1  
$EndComp
Wire Wire Line
	8300 1550 8300 1500
Connection ~ 8300 1500
Wire Wire Line
	7250 1200 8300 1200
Connection ~ 8300 1200
$Comp
L Connector_Generic:Conn_01x02 J9
U 1 1 618A8D66
P 8950 2300
F 0 "J9" H 9030 2292 50  0000 L CNN
F 1 "DoorB" H 9030 2201 50  0000 L CNN
F 2 "Connector_PinHeader_2.54mm:PinHeader_1x02_P2.54mm_Vertical" H 8950 2300 50  0001 C CNN
F 3 "~" H 8950 2300 50  0001 C CNN
	1    8950 2300
	1    0    0    -1  
$EndComp
Wire Wire Line
	8750 2300 8750 2200
Wire Wire Line
	8300 2500 8750 2500
Wire Wire Line
	8750 2500 8750 2400
$Comp
L power:GND #PWR0118
U 1 1 618A8D78
P 8300 2550
F 0 "#PWR0118" H 8300 2300 50  0001 C CNN
F 1 "GND" H 8305 2377 50  0000 C CNN
F 2 "" H 8300 2550 50  0001 C CNN
F 3 "" H 8300 2550 50  0001 C CNN
	1    8300 2550
	1    0    0    -1  
$EndComp
Wire Wire Line
	8300 2550 8300 2500
$Comp
L Device:R_Small R2
U 1 1 618AC2AB
P 7450 2650
F 0 "R2" H 7509 2696 50  0000 L CNN
F 1 "1k" H 7509 2605 50  0000 L CNN
F 2 "Resistor_SMD:R_0805_2012Metric_Pad1.20x1.40mm_HandSolder" H 7450 2650 50  0001 C CNN
F 3 "~" H 7450 2650 50  0001 C CNN
	1    7450 2650
	1    0    0    -1  
$EndComp
Wire Wire Line
	7250 2500 7450 2500
Wire Wire Line
	7450 2500 7450 2550
$Comp
L power:GND #PWR0119
U 1 1 618B1AA2
P 7450 2750
F 0 "#PWR0119" H 7450 2500 50  0001 C CNN
F 1 "GND" H 7455 2577 50  0000 C CNN
F 2 "" H 7450 2750 50  0001 C CNN
F 3 "" H 7450 2750 50  0001 C CNN
	1    7450 2750
	1    0    0    -1  
$EndComp
Text Label 7650 2500 0    50   ~ 0
ENABLE_B
Wire Wire Line
	7650 2500 7450 2500
Connection ~ 7450 2500
Wire Wire Line
	7250 1500 7450 1500
Wire Wire Line
	7450 1500 7450 1550
$Comp
L power:GND #PWR0120
U 1 1 618BD867
P 7450 1750
F 0 "#PWR0120" H 7450 1500 50  0001 C CNN
F 1 "GND" H 7455 1577 50  0000 C CNN
F 2 "" H 7450 1750 50  0001 C CNN
F 3 "" H 7450 1750 50  0001 C CNN
	1    7450 1750
	1    0    0    -1  
$EndComp
Text Label 7650 1500 0    50   ~ 0
ENABLE_A
Wire Wire Line
	7650 1500 7450 1500
Connection ~ 7450 1500
$Comp
L Device:R_Small R1
U 1 1 618BD85F
P 7450 1650
F 0 "R1" H 7509 1696 50  0000 L CNN
F 1 "1k" H 7509 1605 50  0000 L CNN
F 2 "Resistor_SMD:R_0805_2012Metric_Pad1.20x1.40mm_HandSolder" H 7450 1650 50  0001 C CNN
F 3 "~" H 7450 1650 50  0001 C CNN
	1    7450 1650
	1    0    0    -1  
$EndComp
Text Label 3150 3400 2    50   ~ 0
MISO
Wire Wire Line
	3150 3400 3300 3400
Text Label 3150 3300 2    50   ~ 0
MOSI
Wire Wire Line
	3150 3300 3300 3300
Text Label 3150 3500 2    50   ~ 0
SCK
Wire Wire Line
	3150 3500 3300 3500
Text Label 4000 3500 0    50   ~ 0
SS_A
Text Label 4000 3600 0    50   ~ 0
SS_B
Wire Wire Line
	4000 3600 3800 3600
Wire Wire Line
	3800 3500 4000 3500
$Comp
L power:+3.3V #PWR0121
U 1 1 618EBE8C
P 3150 3200
F 0 "#PWR0121" H 3150 3050 50  0001 C CNN
F 1 "+3.3V" V 3165 3328 50  0000 L CNN
F 2 "" H 3150 3200 50  0001 C CNN
F 3 "" H 3150 3200 50  0001 C CNN
	1    3150 3200
	0    -1   -1   0   
$EndComp
Wire Wire Line
	3150 3200 3300 3200
Text Label 4000 3100 0    50   ~ 0
LED_A
Text Label 4000 3200 0    50   ~ 0
LED_B
Text Label 3100 3100 2    50   ~ 0
ENABLE_B
Text Label 3100 2900 2    50   ~ 0
ENABLE_A
$Comp
L power:GND #PWR0122
U 1 1 618F4F85
P 3950 3300
F 0 "#PWR0122" H 3950 3050 50  0001 C CNN
F 1 "GND" V 3955 3172 50  0000 R CNN
F 2 "" H 3950 3300 50  0001 C CNN
F 3 "" H 3950 3300 50  0001 C CNN
	1    3950 3300
	0    -1   -1   0   
$EndComp
$Comp
L power:GND #PWR0123
U 1 1 618F55BB
P 3950 3000
F 0 "#PWR0123" H 3950 2750 50  0001 C CNN
F 1 "GND" V 3955 2872 50  0000 R CNN
F 2 "" H 3950 3000 50  0001 C CNN
F 3 "" H 3950 3000 50  0001 C CNN
	1    3950 3000
	0    -1   -1   0   
$EndComp
Wire Wire Line
	3950 3300 3800 3300
Wire Wire Line
	3800 3000 3950 3000
Wire Wire Line
	4000 3100 3800 3100
Wire Wire Line
	3800 3200 4000 3200
$Comp
L power:GND #PWR0124
U 1 1 61908B39
P 3150 2800
F 0 "#PWR0124" H 3150 2550 50  0001 C CNN
F 1 "GND" V 3155 2672 50  0000 R CNN
F 2 "" H 3150 2800 50  0001 C CNN
F 3 "" H 3150 2800 50  0001 C CNN
	1    3150 2800
	0    1    1    0   
$EndComp
Wire Wire Line
	3300 2800 3150 2800
Wire Wire Line
	3100 3100 3300 3100
Wire Wire Line
	3100 2900 3300 2900
NoConn ~ 3300 3000
$Comp
L power:GND #PWR0125
U 1 1 61913D91
P 3300 3600
F 0 "#PWR0125" H 3300 3350 50  0001 C CNN
F 1 "GND" V 3305 3472 50  0000 R CNN
F 2 "" H 3300 3600 50  0001 C CNN
F 3 "" H 3300 3600 50  0001 C CNN
	1    3300 3600
	0    1    1    0   
$EndComp
NoConn ~ 3300 2700
NoConn ~ 3300 2600
NoConn ~ 3300 2500
NoConn ~ 3800 2700
NoConn ~ 3800 2800
NoConn ~ 3800 2900
NoConn ~ 3800 3400
NoConn ~ 4300 1650
$Comp
L Diode:1N4007 D1
U 1 1 6193BB3A
P 8300 1350
F 0 "D1" V 8254 1430 50  0000 L CNN
F 1 "1N4007" V 8345 1430 50  0000 L CNN
F 2 "Diode_SMD:D_SOD-123" H 8300 1175 50  0001 C CNN
F 3 "http://www.vishay.com/docs/88503/1n4001.pdf" H 8300 1350 50  0001 C CNN
	1    8300 1350
	0    1    1    0   
$EndComp
$Comp
L Diode:1N4007 D2
U 1 1 6193DDD0
P 8300 2350
F 0 "D2" V 8254 2430 50  0000 L CNN
F 1 "1N4007" V 8345 2430 50  0000 L CNN
F 2 "Diode_SMD:D_SOD-123" H 8300 2175 50  0001 C CNN
F 3 "http://www.vishay.com/docs/88503/1n4001.pdf" H 8300 2350 50  0001 C CNN
	1    8300 2350
	0    1    1    0   
$EndComp
Wire Wire Line
	7250 2200 8300 2200
Connection ~ 8300 2200
Wire Wire Line
	8300 2200 8750 2200
Connection ~ 8300 2500
$EndSCHEMATC
